29 ggplot作图入门 | R语言教程
…
29.5.2 条形图的其它应用

geom_col()不仅限于画频数或者比例的条形图，
此函数可以将一般用折线图表现的内容画成条形图，
但一定要注意一点：y坐标轴必须从0开始，
这也是geom_col()和geom_bar()函数默认的设置。
如果坐标轴不从零开始，
则条形的长度就不能正确表示对应的y变量数值。

举一个用条形图表示不是频数和比例的量的例子。
socviz包的oecd_sum数据集包含各年的美国以及OECD国家的期望寿命：

oecd_sum

## # A tibble: 57 x 5
## # Groups:   year [57]
##     year other   usa  diff hi_lo
##    <int> <dbl> <dbl> <dbl> <chr>
##  1  1960  68.6  69.9 1.3   Below
##  2  1961  69.2  70.4 1.2   Below
##  3  1962  68.9  70.2 1.30  Below
##  4  1963  69.1  70   0.9   Below
##  5  1964  69.5  70.3 0.800 Below
##  6  1965  69.6  70.3 0.7   Below
##  7  1966  69.9  70.3 0.400 Below
##  8  1967  70.1  70.7 0.6   Below
##  9  1968  70.1  70.4 0.3   Below
## 10  1969  70.1  70.6 0.5   Below
## # ... with 47 more rows
…
