32 R相关与回归 | R语言教程
…
32.3.14 分组建立多个模型

有时希望将数据按照一个或者几个分类变量分组，
每一组分别建立模型，
并将模型结果统一列表比较。
broom包可以用来将模型结果转换成规范的数据框格式。

以肺癌病人数据为例，
建立v1对v0和age的多元线性回归模型：

print(d.cancer)

## # A tibble: 34 x 6
##       id   age sex   type     v0     v1
##    <dbl> <dbl> <chr> <chr> <dbl>  <dbl>
##  1     1    70 F     腺癌   26.5   2.91
##  2     2    70 F     腺癌  135.   35.1 
##  3     3    69 F     腺癌  210.   74.4 
##  4     4    68 M     腺癌   61    35.0 
##  5     5    67 M     鳞癌  238.  128.  
##  6     6    75 F     腺癌  330.  112.  
##  7     7    52 M     鳞癌  105.   32.1 
##  8     8    71 M     鳞癌   85.2  29.2 
##  9     9    68 M     鳞癌  102.   22.2 
## 10    10    79 M     鳞癌   65.5  21.9 
## # ... with 24 more rows
…
