27 数据汇总 | R语言教程
…
unnest提取出的信息也可以是一个向量，
在展开时会展开到同一列中。
例如，
对每个组提取回归的拟合值：

mod.cancer %>%
  mutate(
    v1hat = map(lmr, ~ fitted(.))) %>%
  select(-lmr) %>%
  unnest(c(data, v1hat))

## # A tibble: 34 x 7
## # Groups:   type [2]
##    type     id   age sex      v0     v1  v1hat
##    <chr> <dbl> <dbl> <chr> <dbl>  <dbl>  <dbl>
##  1 腺癌      1    70 F      26.5   2.91  10.0 
##  2 腺癌      2    70 F     135.   35.1   50.4 
##  3 腺癌      3    69 F     210.   74.4   77.9 
##  4 腺癌      4    68 M      61    35.0   22.8 
##  5 腺癌      6    75 F     330.  112.   123.  
##  6 腺癌     11    55 M     125.   12.3   46.6 
##  7 腺癌     13    55 F      12.9   2.3    5.01
##  8 腺癌     14    75 M      40.2  24.0   15.1 
##  9 腺癌     15    61 F      12.6   7.39   4.88
## 10 腺癌     19    NA F      32.9   9.45  12.4 
## # ... with 24 more rows
…
